Homework(6-5,6-7)
…
## -- Conflicts ------------------------------- tidyverse_conflicts() --
## x dplyr::filter() masks stats::filter()
## x dplyr::lag()    masks stats::lag()

library(survminer)

## Loading required package: ggpubr

 6-5)  F98 glioma( :    )  boron neutron capture therapy(BNCT :   )     .          F98 glioma cell     .    ,   ,  boronophenylanine(BPA)        .

BPA <- tibble(time=c(20,21,23,24,24,26,26,27,28,30,26,28,29,30,30,31,31,32,29,35,31,32,34,35,36,38,38,42,39,42),censor=c(rep(1,10),rep(1,9),0,rep(1,7),0,rep(1,2)),method=c(rep("untreated",10),rep("radiated",10),rep("radiated+BPA",10)))
BPA

## # A tibble: 30 x 3
##     time censor method   
##    <dbl>  <dbl> <chr>    
##  1    20      1 untreated
##  2    21      1 untreated
##  3    23      1 untreated
##  4    24      1 untreated
##  5    24      1 untreated
##  6    26      1 untreated
##  7    26      1 untreated
##  8    27      1 untreated
##  9    28      1 untreated
## 10    30      1 untreated
## # ... with 20 more rows
…
Chi-square test statistic = 33.4 / p-value = 6*10^(-8) < alpha=0.05

Reject H0 ->      .

 6-7) 90 ( ,  )      .  (tumor cell)   (low-fat), (saturated), (unsaturated)    200   .        .

data

tumor <- tibble(time=c(140,177,50,65,86,153,181,191,77,84,87,56,66,73,119,140,200,201,202,203,204,205,206,207,208,209,210,211,212,213,124,58,56,68,79,89,107,86,142,110,96,142,86,75,117,98,105,126,43,46,81,133,165,170,200,201,202,203,204,205,112,68,84,109,153,143,60,70,98,164,63,63,77,91,91,66,70,77,63,66,66,94,101,105,108,112,115,126,181,178),censor=c(rep(1,15),rep(0,15),rep(1,23),rep(0,7),rep(1,30)),method=c(rep("low-fat",30),rep("saturated",30),rep("unsaturated",30)))
tumor

## # A tibble: 90 x 3
##     time censor method 
##    <dbl>  <dbl> <chr>  
##  1   140      1 low-fat
##  2   177      1 low-fat
##  3    50      1 low-fat
##  4    65      1 low-fat
##  5    86      1 low-fat
##  6   153      1 low-fat
##  7   181      1 low-fat
##  8   191      1 low-fat
##  9    77      1 low-fat
## 10    84      1 low-fat
## # ... with 80 more rows
…
